^C:\USERS\CRISTIAN\DESKTOP\UNITBV\CLOUD\ERRORSMICROSERVICES\TEMA1 CLOUD\EXAMPLEGRPC\X64\DEBUG\HELLOOPERATION.GRPC.PB.OBJ|C:\USERS\CRISTIAN\DESKTOP\UNITBV\CLOUD\ERRORSMICROSERVICES\TEMA1 CLOUD\EXAMPLEGRPC\X64\DEBUG\HELLOOPERATION.PB.OBJ|C:\USERS\CRISTIAN\DESKTOP\UNITBV\CLOUD\ERRORSMICROSERVICES\TEMA1 CLOUD\EXAMPLEGRPC\X64\DEBUG\NAMEREQUEST.GRPC.PB.OBJ|C:\USERS\CRISTIAN\DESKTOP\UNITBV\CLOUD\ERRORSMICROSERVICES\TEMA1 CLOUD\EXAMPLEGRPC\X64\DEBUG\NAMEREQUEST.PB.OBJ|C:\USERS\CRISTIAN\DESKTOP\UNITBV\CLOUD\ERRORSMICROSERVICES\TEMA1 CLOUD\EXAMPLEGRPC\X64\DEBUG\OPERATIONRESPONSE.GRPC.PB.OBJ|C:\USERS\CRISTIAN\DESKTOP\UNITBV\CLOUD\ERRORSMICROSERVICES\TEMA1 CLOUD\EXAMPLEGRPC\X64\DEBUG\OPERATIONRESPONSE.PB.OBJ
C:\USERS\CRISTIAN\DESKTOP\UNITBV\CLOUD\VCPKG-MASTER\VCPKG-MASTER\INSTALLED\X86-WINDOWS\DEBUG\LIB\LIBPROTOBUFD.LIB
C:\WINDOWS\SYSTEM32\TZRES.DLL
C:\USERS\CRISTIAN\DESKTOP\UNITBV\CLOUD\VCPKG-MASTER\VCPKG-MASTER\INSTALLED\X86-WINDOWS\DEBUG\LIB\GRPC.LIB
C:\USERS\CRISTIAN\DESKTOP\UNITBV\CLOUD\ERRORSMICROSERVICES\TEMA1 CLOUD\EXAMPLEGRPC\X64\DEBUG\HELLOOPERATION.GRPC.PB.OBJ
C:\USERS\CRISTIAN\DESKTOP\UNITBV\CLOUD\ERRORSMICROSERVICES\TEMA1 CLOUD\EXAMPLEGRPC\X64\DEBUG\HELLOOPERATION.PB.OBJ
C:\USERS\CRISTIAN\DESKTOP\UNITBV\CLOUD\ERRORSMICROSERVICES\TEMA1 CLOUD\EXAMPLEGRPC\X64\DEBUG\NAMEREQUEST.GRPC.PB.OBJ
C:\USERS\CRISTIAN\DESKTOP\UNITBV\CLOUD\ERRORSMICROSERVICES\TEMA1 CLOUD\EXAMPLEGRPC\X64\DEBUG\NAMEREQUEST.PB.OBJ
C:\USERS\CRISTIAN\DESKTOP\UNITBV\CLOUD\ERRORSMICROSERVICES\TEMA1 CLOUD\EXAMPLEGRPC\X64\DEBUG\OPERATIONRESPONSE.GRPC.PB.OBJ
C:\USERS\CRISTIAN\DESKTOP\UNITBV\CLOUD\ERRORSMICROSERVICES\TEMA1 CLOUD\EXAMPLEGRPC\X64\DEBUG\OPERATIONRESPONSE.PB.OBJ
C:\WINDOWS\GLOBALIZATION\SORTING\SORTDEFAULT.NLS
