^C:\USERS\CRISTIAN\DESKTOP\UNITBV\CLOUD\ERRORSMICROSERVICES\TEMA1 CLOUD\EXAMPLEGRPC\X64\DEBUG\HELLOOPERATION.GRPC.PB.OBJ|C:\USERS\CRISTIAN\DESKTOP\UNITBV\CLOUD\ERRORSMICROSERVICES\TEMA1 CLOUD\EXAMPLEGRPC\X64\DEBUG\HELLOOPERATION.PB.OBJ|C:\USERS\CRISTIAN\DESKTOP\UNITBV\CLOUD\ERRORSMICROSERVICES\TEMA1 CLOUD\EXAMPLEGRPC\X64\DEBUG\NAMEREQUEST.GRPC.PB.OBJ|C:\USERS\CRISTIAN\DESKTOP\UNITBV\CLOUD\ERRORSMICROSERVICES\TEMA1 CLOUD\EXAMPLEGRPC\X64\DEBUG\NAMEREQUEST.PB.OBJ|C:\USERS\CRISTIAN\DESKTOP\UNITBV\CLOUD\ERRORSMICROSERVICES\TEMA1 CLOUD\EXAMPLEGRPC\X64\DEBUG\OPERATIONRESPONSE.GRPC.PB.OBJ|C:\USERS\CRISTIAN\DESKTOP\UNITBV\CLOUD\ERRORSMICROSERVICES\TEMA1 CLOUD\EXAMPLEGRPC\X64\DEBUG\OPERATIONRESPONSE.PB.OBJ
/OUT:"C:\USERS\CRISTIAN\DESKTOP\UNITBV\CLOUD\ERRORSMICROSERVICES\TEMA1 CLOUD\X64\DEBUG\GENERATED.LIB" LIBPROTOBUFD.LIB GRPC.LIB /LIBPATH:"C:\USERS\CRISTIAN\DESKTOP\UNITBV\CLOUD\VCPKG-MASTER\VCPKG-MASTER\INSTALLED\X86-WINDOWS\DEBUG\LIB" /NOLOGO /MACHINE:X64 X64\DEBUG\HELLOOPERATION.GRPC.PB.OBJ
X64\DEBUG\HELLOOPERATION.PB.OBJ
X64\DEBUG\NAMEREQUEST.GRPC.PB.OBJ
X64\DEBUG\NAMEREQUEST.PB.OBJ
X64\DEBUG\OPERATIONRESPONSE.GRPC.PB.OBJ
X64\DEBUG\OPERATIONRESPONSE.PB.OBJ
