^C:\USERS\CRISTIAN\SOURCE\REPOS\EXAMPLEGRPC\SERVER\SERVER.CPP
/c /IC:\USERS\CRISTIAN\SOURCE\REPOS\EXAMPLEGRPC\EXAMPLEGRPC /I"C:\USERS\CRISTIAN\DESKTOP\UNITBV\CLOUD\VCPKG-MASTER\VCPKG-MASTER\INSTALLED\X86-WINDOWS\INCLUDE" /IC:\USERS\CRISTIAN\SOURCE\REPOS\EXAMPLEGRPC\GENERATED /I"C:\USERS\CRISTIAN\DESKTOP\UNITBV\CLOUD\VCPKG-MASTER\VCPKG-MASTER\INSTALLED\X86-WINDOWS\INCLUDE" /ZI /JMC /nologo /W3 /WX- /diagnostics:column /sdl /Od /Oy- /D WIN32 /D _DEBUG /D _CONSOLE /D _UNICODE /D UNICODE /Gm- /EHsc /RTC1 /MDd /GS /fp:precise /permissive- /Zc:wchar_t /Zc:forScope /Zc:inline /Fo"DEBUG\\" /Fd"DEBUG\VC142.PDB" /Gd /TP /analyze- /FC C:\USERS\CRISTIAN\SOURCE\REPOS\EXAMPLEGRPC\SERVER\SERVER.CPP
^C:\USERS\CRISTIAN\SOURCE\REPOS\EXAMPLEGRPC\SERVER\HELLOSERVICEIMPL.CPP
/c /IC:\USERS\CRISTIAN\SOURCE\REPOS\EXAMPLEGRPC\EXAMPLEGRPC /I"C:\USERS\CRISTIAN\DESKTOP\UNITBV\CLOUD\VCPKG-MASTER\VCPKG-MASTER\INSTALLED\X86-WINDOWS\INCLUDE" /IC:\USERS\CRISTIAN\SOURCE\REPOS\EXAMPLEGRPC\GENERATED /I"C:\USERS\CRISTIAN\DESKTOP\UNITBV\CLOUD\VCPKG-MASTER\VCPKG-MASTER\INSTALLED\X86-WINDOWS\INCLUDE" /ZI /JMC /nologo /W3 /WX- /diagnostics:column /sdl /Od /Oy- /D WIN32 /D _DEBUG /D _CONSOLE /D _UNICODE /D UNICODE /Gm- /EHsc /RTC1 /MDd /GS /fp:precise /permissive- /Zc:wchar_t /Zc:forScope /Zc:inline /Fo"DEBUG\\" /Fd"DEBUG\VC142.PDB" /Gd /TP /analyze- /FC C:\USERS\CRISTIAN\SOURCE\REPOS\EXAMPLEGRPC\SERVER\HELLOSERVICEIMPL.CPP
^C:\USERS\CRISTIAN\DESKTOP\UNITBV\CLOUD\HELLOMICROSERVICES\TEMA1 CLOUD\SERVER\HELLOSERVICEIMPL.CPP
/c /IC:\USERS\CRISTIAN\SOURCE\REPOS\EXAMPLEGRPC\EXAMPLEGRPC /I"C:\USERS\CRISTIAN\DESKTOP\UNITBV\CLOUD\VCPKG-MASTER\VCPKG-MASTER\INSTALLED\X86-WINDOWS\INCLUDE" /IC:\USERS\CRISTIAN\SOURCE\REPOS\EXAMPLEGRPC\GENERATED /I"C:\USERS\CRISTIAN\DESKTOP\UNITBV\CLOUD\HELLOMICROSERVICES\TEMA1 CLOUD\EXAMPLEGRPC" /I"C:\USERS\CRISTIAN\DESKTOP\UNITBV\CLOUD\HELLOMICROSERVICES\TEMA1 CLOUD\GENERATED" /I"..\TEMA1 CLOUD\EXAMPLEGRPC" /I"..\TEMA1 CLOUD\GENERATED" /I"C:\USERS\CRISTIAN\DESKTOP\UNITBV\CLOUD\VCPKG-MASTER\VCPKG-MASTER\INSTALLED\X86-WINDOWS\INCLUDE" /ZI /JMC /nologo /W3 /WX- /diagnostics:column /sdl /Od /Oy- /D WIN32 /D _DEBUG /D _CONSOLE /D _UNICODE /D UNICODE /Gm- /EHsc /RTC1 /MDd /GS /fp:precise /permissive- /Zc:wchar_t /Zc:forScope /Zc:inline /Fo"DEBUG\\" /Fd"DEBUG\VC142.PDB" /Gd /TP /analyze- /FC C:\USERS\CRISTIAN\DESKTOP\UNITBV\CLOUD\HELLOMICROSERVICES\TEMA1 CLOUD\SERVER\HELLOSERVICEIMPL.CPP
^C:\USERS\CRISTIAN\DESKTOP\UNITBV\CLOUD\HELLOMICROSERVICES\TEMA1 CLOUD\SERVER\SERVER.CPP
/c /IC:\USERS\CRISTIAN\SOURCE\REPOS\EXAMPLEGRPC\EXAMPLEGRPC /I"C:\USERS\CRISTIAN\DESKTOP\UNITBV\CLOUD\VCPKG-MASTER\VCPKG-MASTER\INSTALLED\X86-WINDOWS\INCLUDE" /IC:\USERS\CRISTIAN\SOURCE\REPOS\EXAMPLEGRPC\GENERATED /I"C:\USERS\CRISTIAN\DESKTOP\UNITBV\CLOUD\HELLOMICROSERVICES\TEMA1 CLOUD\EXAMPLEGRPC" /I"C:\USERS\CRISTIAN\DESKTOP\UNITBV\CLOUD\HELLOMICROSERVICES\TEMA1 CLOUD\GENERATED" /I"..\TEMA1 CLOUD\EXAMPLEGRPC" /I"..\TEMA1 CLOUD\GENERATED" /I"C:\USERS\CRISTIAN\DESKTOP\UNITBV\CLOUD\VCPKG-MASTER\VCPKG-MASTER\INSTALLED\X86-WINDOWS\INCLUDE" /ZI /JMC /nologo /W3 /WX- /diagnostics:column /sdl /Od /Oy- /D WIN32 /D _DEBUG /D _CONSOLE /D _UNICODE /D UNICODE /Gm- /EHsc /RTC1 /MDd /GS /fp:precise /permissive- /Zc:wchar_t /Zc:forScope /Zc:inline /Fo"DEBUG\\" /Fd"DEBUG\VC142.PDB" /Gd /TP /analyze- /FC C:\USERS\CRISTIAN\DESKTOP\UNITBV\CLOUD\HELLOMICROSERVICES\TEMA1 CLOUD\SERVER\SERVER.CPP
^C:\USERS\CRISTIAN\DESKTOP\UNITBV\CLOUD\ERRORSMICROSERVICES\TEMA1 CLOUD\SERVER\SERVER.CPP
/c /I"C:\USERS\CRISTIAN\DESKTOP\UNITBV\CLOUD\VCPKG-MASTER\VCPKG-MASTER\INSTALLED\X86-WINDOWS\INCLUDE" /I"C:\USERS\CRISTIAN\DESKTOP\UNITBV\CLOUD\ERRORSMICROSERVICES\TEMA1 CLOUD\GENERATED" /I"C:\USERS\CRISTIAN\DESKTOP\UNITBV\CLOUD\VCPKG-MASTER\VCPKG-MASTER\INSTALLED\X86-WINDOWS\INCLUDE" /ZI /JMC /nologo /W3 /WX- /diagnostics:column /sdl /Od /Oy- /D WIN32 /D _DEBUG /D _CONSOLE /D _UNICODE /D UNICODE /Gm- /EHsc /RTC1 /MDd /GS /fp:precise /permissive- /Zc:wchar_t /Zc:forScope /Zc:inline /Fo"DEBUG\\" /Fd"DEBUG\VC142.PDB" /Gd /TP /analyze- /FC C:\USERS\CRISTIAN\DESKTOP\UNITBV\CLOUD\ERRORSMICROSERVICES\TEMA1 CLOUD\SERVER\SERVER.CPP
^C:\USERS\CRISTIAN\DESKTOP\UNITBV\CLOUD\ERRORSMICROSERVICES\TEMA1 CLOUD\SERVER\HELLOSERVICEIMPL.CPP
/c /I"C:\USERS\CRISTIAN\DESKTOP\UNITBV\CLOUD\VCPKG-MASTER\VCPKG-MASTER\INSTALLED\X86-WINDOWS\INCLUDE" /I"C:\USERS\CRISTIAN\DESKTOP\UNITBV\CLOUD\ERRORSMICROSERVICES\TEMA1 CLOUD\GENERATED" /I"C:\USERS\CRISTIAN\DESKTOP\UNITBV\CLOUD\VCPKG-MASTER\VCPKG-MASTER\INSTALLED\X86-WINDOWS\INCLUDE" /ZI /JMC /nologo /W3 /WX- /diagnostics:column /sdl /Od /Oy- /D WIN32 /D _DEBUG /D _CONSOLE /D _UNICODE /D UNICODE /Gm- /EHsc /RTC1 /MDd /GS /fp:precise /permissive- /Zc:wchar_t /Zc:forScope /Zc:inline /Fo"DEBUG\\" /Fd"DEBUG\VC142.PDB" /Gd /TP /analyze- /FC C:\USERS\CRISTIAN\DESKTOP\UNITBV\CLOUD\ERRORSMICROSERVICES\TEMA1 CLOUD\SERVER\HELLOSERVICEIMPL.CPP
^C:\USERS\CRISTIAN\DESKTOP\UNITBV\CLOUD\ERRORMICROSERVICESREPO\ERRORSEXAMPLES\SERVER\HELLOSERVICEIMPL.CPP
/c /I"C:\USERS\CRISTIAN\DESKTOP\UNITBV\CLOUD\VCPKG-MASTER\VCPKG-MASTER\INSTALLED\X86-WINDOWS\INCLUDE" /IC:\USERS\CRISTIAN\DESKTOP\UNITBV\CLOUD\ERRORMICROSERVICESREPO\ERRORSEXAMPLES\GENERATED /I"C:\USERS\CRISTIAN\DESKTOP\UNITBV\CLOUD\VCPKG-MASTER\VCPKG-MASTER\INSTALLED\X86-WINDOWS\INCLUDE" /ZI /JMC /nologo /W3 /WX- /diagnostics:column /sdl /Od /Oy- /D WIN32 /D _DEBUG /D _CONSOLE /D _UNICODE /D UNICODE /Gm- /EHsc /RTC1 /MDd /GS /fp:precise /permissive- /Zc:wchar_t /Zc:forScope /Zc:inline /Fo"DEBUG\\" /Fd"DEBUG\VC142.PDB" /Gd /TP /analyze- /FC C:\USERS\CRISTIAN\DESKTOP\UNITBV\CLOUD\ERRORMICROSERVICESREPO\ERRORSEXAMPLES\SERVER\HELLOSERVICEIMPL.CPP
^C:\USERS\CRISTIAN\DESKTOP\UNITBV\CLOUD\ERRORMICROSERVICESREPO\ERRORSEXAMPLES\SERVER\SERVER.CPP
/c /I"C:\USERS\CRISTIAN\DESKTOP\UNITBV\CLOUD\VCPKG-MASTER\VCPKG-MASTER\INSTALLED\X86-WINDOWS\INCLUDE" /IC:\USERS\CRISTIAN\DESKTOP\UNITBV\CLOUD\ERRORMICROSERVICESREPO\ERRORSEXAMPLES\GENERATED /I"C:\USERS\CRISTIAN\DESKTOP\UNITBV\CLOUD\VCPKG-MASTER\VCPKG-MASTER\INSTALLED\X86-WINDOWS\INCLUDE" /ZI /JMC /nologo /W3 /WX- /diagnostics:column /sdl /Od /Oy- /D WIN32 /D _DEBUG /D _CONSOLE /D _UNICODE /D UNICODE /Gm- /EHsc /RTC1 /MDd /GS /fp:precise /permissive- /Zc:wchar_t /Zc:forScope /Zc:inline /Fo"DEBUG\\" /Fd"DEBUG\VC142.PDB" /Gd /TP /analyze- /FC C:\USERS\CRISTIAN\DESKTOP\UNITBV\CLOUD\ERRORMICROSERVICESREPO\ERRORSEXAMPLES\SERVER\SERVER.CPP
