^C:\Users\Cristian\Desktop\UniTBV\Cloud\HelloMicroservices\Tema1 Cloud\Debug\Server.exe
C:\Users\Cristian\Desktop\UniTBV\Cloud\HelloMicroservices\Tema1 Cloud\Server\Debug\vcpkg.applocal.log
C:\Users\Cristian\Desktop\UniTBV\Cloud\HelloMicroservices\Tema1 Cloud\Debug\libprotobufd.dll
C:\Users\Cristian\Desktop\UniTBV\Cloud\HelloMicroservices\Tema1 Cloud\Debug\libcrypto-1_1.dll
C:\Users\Cristian\Desktop\UniTBV\Cloud\HelloMicroservices\Tema1 Cloud\Debug\libssl-1_1.dll
C:\Users\Cristian\Desktop\UniTBV\Cloud\HelloMicroservices\Tema1 Cloud\Debug\zlibd1.dll
^C:\Users\Cristian\Desktop\UniTBV\Cloud\HelloMicroservices\Tema1 Cloud\Debug\Server.exe
C:\Users\Cristian\Desktop\UniTBV\Cloud\HelloMicroservices\Tema1 Cloud\Server\Debug\vcpkg.applocal.log
C:\Users\Cristian\Desktop\UniTBV\Cloud\HelloMicroservices\Tema1 Cloud\Debug\libprotobufd.dll
C:\Users\Cristian\Desktop\UniTBV\Cloud\HelloMicroservices\Tema1 Cloud\Debug\libcrypto-1_1.dll
C:\Users\Cristian\Desktop\UniTBV\Cloud\HelloMicroservices\Tema1 Cloud\Debug\libssl-1_1.dll
C:\Users\Cristian\Desktop\UniTBV\Cloud\HelloMicroservices\Tema1 Cloud\Debug\zlibd1.dll
^C:\Users\Cristian\Desktop\UniTBV\Cloud\HelloMicroservices\Tema1 Cloud\Debug\Server.exe
C:\Users\Cristian\Desktop\UniTBV\Cloud\HelloMicroservices\Tema1 Cloud\Server\Debug\vcpkg.applocal.log
C:\Users\Cristian\Desktop\UniTBV\Cloud\HelloMicroservices\Tema1 Cloud\Debug\libprotobufd.dll
C:\Users\Cristian\Desktop\UniTBV\Cloud\HelloMicroservices\Tema1 Cloud\Debug\libcrypto-1_1.dll
C:\Users\Cristian\Desktop\UniTBV\Cloud\HelloMicroservices\Tema1 Cloud\Debug\libssl-1_1.dll
C:\Users\Cristian\Desktop\UniTBV\Cloud\HelloMicroservices\Tema1 Cloud\Debug\zlibd1.dll
^C:\Users\Cristian\Desktop\UniTBV\Cloud\HelloMicroservices\Tema1 Cloud\Debug\Server.exe
C:\Users\Cristian\Desktop\UniTBV\Cloud\HelloMicroservices\Tema1 Cloud\Server\Debug\vcpkg.applocal.log
C:\Users\Cristian\Desktop\UniTBV\Cloud\HelloMicroservices\Tema1 Cloud\Debug\libprotobufd.dll
C:\Users\Cristian\Desktop\UniTBV\Cloud\HelloMicroservices\Tema1 Cloud\Debug\libcrypto-1_1.dll
C:\Users\Cristian\Desktop\UniTBV\Cloud\HelloMicroservices\Tema1 Cloud\Debug\libssl-1_1.dll
C:\Users\Cristian\Desktop\UniTBV\Cloud\HelloMicroservices\Tema1 Cloud\Debug\zlibd1.dll
^C:\Users\Cristian\Desktop\UniTBV\Cloud\ErrorsMicroservices\Tema1 Cloud\Debug\Server.exe
C:\Users\Cristian\Desktop\UniTBV\Cloud\ErrorsMicroservices\Tema1 Cloud\Server\Debug\vcpkg.applocal.log
C:\Users\Cristian\Desktop\UniTBV\Cloud\ErrorsMicroservices\Tema1 Cloud\Debug\libprotobufd.dll
C:\Users\Cristian\Desktop\UniTBV\Cloud\ErrorsMicroservices\Tema1 Cloud\Debug\libcrypto-1_1.dll
C:\Users\Cristian\Desktop\UniTBV\Cloud\ErrorsMicroservices\Tema1 Cloud\Debug\libssl-1_1.dll
C:\Users\Cristian\Desktop\UniTBV\Cloud\ErrorsMicroservices\Tema1 Cloud\Debug\zlibd1.dll
^C:\Users\Cristian\Desktop\UniTBV\Cloud\ErrorsMicroservices\Tema1 Cloud\Debug\Server.exe
C:\Users\Cristian\Desktop\UniTBV\Cloud\ErrorsMicroservices\Tema1 Cloud\Server\Debug\vcpkg.applocal.log
C:\Users\Cristian\Desktop\UniTBV\Cloud\ErrorsMicroservices\Tema1 Cloud\Debug\libprotobufd.dll
C:\Users\Cristian\Desktop\UniTBV\Cloud\ErrorsMicroservices\Tema1 Cloud\Debug\libcrypto-1_1.dll
C:\Users\Cristian\Desktop\UniTBV\Cloud\ErrorsMicroservices\Tema1 Cloud\Debug\libssl-1_1.dll
C:\Users\Cristian\Desktop\UniTBV\Cloud\ErrorsMicroservices\Tema1 Cloud\Debug\zlibd1.dll
^C:\Users\Cristian\Desktop\UniTBV\Cloud\ErrorMicroservicesRepo\ErrorsExamples\Debug\Server.exe
C:\Users\Cristian\Desktop\UniTBV\Cloud\ErrorMicroservicesRepo\ErrorsExamples\Server\Debug\vcpkg.applocal.log
C:\Users\Cristian\Desktop\UniTBV\Cloud\ErrorMicroservicesRepo\ErrorsExamples\Debug\libprotobufd.dll
C:\Users\Cristian\Desktop\UniTBV\Cloud\ErrorMicroservicesRepo\ErrorsExamples\Debug\libcrypto-1_1.dll
C:\Users\Cristian\Desktop\UniTBV\Cloud\ErrorMicroservicesRepo\ErrorsExamples\Debug\libssl-1_1.dll
C:\Users\Cristian\Desktop\UniTBV\Cloud\ErrorMicroservicesRepo\ErrorsExamples\Debug\zlibd1.dll
